<svg id="_Icons_Check" data-name="_Icons / Check" xmlns="http://www.w3.org/2000/svg" width="20" height="20" viewBox="0 0 20 20">
  <g id="_22_Check" data-name="22 Check" transform="translate(0 0)" fill="rgba(255,140,0,0)" stroke-linejoin="bevel">
    <path d="M 10 19.5 C 4.761680126190186 19.5 0.5 15.23832035064697 0.5 10 C 0.5 4.761680126190186 4.761680126190186 0.5 10 0.5 C 11.25389003753662 0.5 12.47704982757568 0.7433000206947327 13.63549041748047 1.223140001296997 C 14.79393005371094 1.702990055084229 15.8308801651001 2.395849943161011 16.71751976013184 3.282480001449585 C 17.60415077209473 4.169119834899902 18.29701042175293 5.206069946289062 18.77685928344727 6.364510059356689 C 19.25670051574707 7.522960186004639 19.5 8.746109962463379 19.5 10 C 19.5 15.23832035064697 15.23832035064697 19.5 10 19.5 Z" stroke="none"/>
    <path d="M 10 1 C 5.037380218505859 1 1 5.037380218505859 1 10 C 1 14.96261978149414 5.037380218505859 19 10 19 C 14.96261978149414 19 19 14.96261978149414 19 10 C 19 7.596019744873047 18.06384086608887 5.335920333862305 16.36396980285645 3.636039733886719 C 14.6640796661377 1.936159133911133 12.40398025512695 1 10 1 M 10 0 C 12.65217018127441 0 15.19569969177246 1.053569793701172 17.07106971740723 2.928930282592773 C 18.94643020629883 4.804300308227539 20 7.347840309143066 20 10 C 20 15.52285003662109 15.52285003662109 20 10 20 C 4.477149963378906 20 0 15.52285003662109 0 10 C 0 4.477149963378906 4.477149963378906 0 10 0 Z" stroke="none" fill="#ff8c00"/>
  </g>
</svg>
