<svg id="Glyph_Copy" data-name="Glyph Copy" xmlns="http://www.w3.org/2000/svg" width="28" height="28" viewBox="0 0 28 28">
  <rect id="Glyph_Copy_background" data-name="Glyph Copy background" width="28" height="28" fill="rgba(0,0,0,0)"/>
  <path id="Shape" d="M12.134,23.973H3.256A3.26,3.26,0,0,1,0,20.717V3.256A3.26,3.26,0,0,1,3.256,0H15.391a3.257,3.257,0,0,1,3.253,3.253V17.463a.886.886,0,0,1-.26.628l-5.622,5.622A.9.9,0,0,1,12.134,23.973ZM3.256,1.775A1.48,1.48,0,0,0,1.777,3.253V20.714a1.48,1.48,0,0,0,1.479,1.479l7.989,0V18.94A3.26,3.26,0,0,1,14.5,15.683H16.87V3.253a1.48,1.48,0,0,0-1.479-1.479ZM14.5,17.46a1.481,1.481,0,0,0-1.479,1.48v2L16.5,17.46Z" transform="translate(5.011 2.013)" fill="rgba(0,0,0,0.5)"/>
</svg>
